Flow report for Range_Sensor
Wed May 30 15:36:03 2018
Quartus II 64-Bit Version 13.0.1 Build 232 06/12/2013 Service Pack 1 SJ Web Edition


---------------------
; Table of Contents ;
---------------------
  1. Legal Notice
  2. Flow Summary
  3. Flow Settings
  4. Flow Non-Default Global Settings
  5. Flow Elapsed Time
  6. Flow OS Summary
  7. Flow Log
  8. Flow Messages
  9. Flow Suppressed Messages



----------------
; Legal Notice ;
----------------
Copyright (C) 1991-2013 Altera Corporation
Your use of Altera Corporation's design tools, logic functions 
and other software and tools, and its AMPP partner logic 
functions, and any output files from any of the foregoing 
(including device programming or simulation files), and any 
associated documentation or information are expressly subject 
to the terms and conditions of the Altera Program License 
Subscription Agreement, Altera MegaCore Function License 
Agreement, or other applicable license agreement, including, 
without limitation, that your use is for the sole purpose of 
programming logic devices manufactured by Altera and sold by 
Altera or its authorized distributors.  Please refer to the 
applicable agreement for further details.



+--------------------------------------------------------------------------------------+
; Flow Summary                                                                         ;
+------------------------------------+-------------------------------------------------+
; Flow Status                        ; Successful - Wed May 30 15:35:58 2018           ;
; Quartus II 64-Bit Version          ; 13.0.1 Build 232 06/12/2013 SP 1 SJ Web Edition ;
; Revision Name                      ; Range_Sensor                                    ;
; Top-level Entity Name              ; top_range_sensor                                ;
; Family                             ; Cyclone II                                      ;
; Device                             ; EP2C5Q208C8                                     ;
; Timing Models                      ; Final                                           ;
; Total logic elements               ; 168 / 4,608 ( 4 % )                             ;
;     Total combinational functions  ; 168 / 4,608 ( 4 % )                             ;
;     Dedicated logic registers      ; 75 / 4,608 ( 2 % )                              ;
; Total registers                    ; 75                                              ;
; Total pins                         ; 15 / 142 ( 11 % )                               ;
; Total virtual pins                 ; 0                                               ;
; Total memory bits                  ; 0 / 119,808 ( 0 % )                             ;
; Embedded Multiplier 9-bit elements ; 0 / 26 ( 0 % )                                  ;
; Total PLLs                         ; 0 / 2 ( 0 % )                                   ;
+------------------------------------+-------------------------------------------------+


+-----------------------------------------+
; Flow Settings                           ;
+-------------------+---------------------+
; Option            ; Setting             ;
+-------------------+---------------------+
; Start date & time ; 05/30/2018 15:35:38 ;
; Main task         ; Compilation         ;
; Revision Name     ; Range_Sensor        ;
+-------------------+---------------------+


+--------------------------------------------------------------------------------------------------------------------+
; Flow Non-Default Global Settings                                                                                   ;
+-------------------------------------+------------------------------+---------------+------------------+------------+
; Assignment Name                     ; Value                        ; Default Value ; Entity Name      ; Section Id ;
+-------------------------------------+------------------------------+---------------+------------------+------------+
; COMPILER_SIGNATURE_ID               ; 136648651605.152770533807968 ; --            ; --               ; --         ;
; MAX_CORE_JUNCTION_TEMP              ; 85                           ; --            ; --               ; --         ;
; MIN_CORE_JUNCTION_TEMP              ; 0                            ; --            ; --               ; --         ;
; PARTITION_COLOR                     ; 16764057                     ; --            ; Top_Range_Sensor ; Top        ;
; PARTITION_FITTER_PRESERVATION_LEVEL ; PLACEMENT_AND_ROUTING        ; --            ; Top_Range_Sensor ; Top        ;
; PARTITION_NETLIST_TYPE              ; SOURCE                       ; --            ; Top_Range_Sensor ; Top        ;
; PROJECT_OUTPUT_DIRECTORY            ; output_files                 ; --            ; --               ; --         ;
; TOP_LEVEL_ENTITY                    ; Top_Range_Sensor             ; Range_Sensor  ; --               ; --         ;
+-------------------------------------+------------------------------+---------------+------------------+------------+


+-------------------------------------------------------------------------------------------------------------------------------+
; Flow Elapsed Time                                                                                                             ;
+---------------------------+--------------+-------------------------+---------------------+------------------------------------+
; Module Name               ; Elapsed Time ; Average Processors Used ; Peak Virtual Memory ; Total CPU Time (on all processors) ;
+---------------------------+--------------+-------------------------+---------------------+------------------------------------+
; Analysis & Synthesis      ; 00:00:04     ; 1.0                     ; 599 MB              ; 00:00:04                           ;
; Fitter                    ; 00:00:07     ; 1.0                     ; 643 MB              ; 00:00:07                           ;
; Assembler                 ; 00:00:02     ; 1.0                     ; 548 MB              ; 00:00:02                           ;
; TimeQuest Timing Analyzer ; 00:00:02     ; 1.0                     ; 498 MB              ; 00:00:02                           ;
; Total                     ; 00:00:15     ; --                      ; --                  ; 00:00:15                           ;
+---------------------------+--------------+-------------------------+---------------------+------------------------------------+


+---------------------------------------------------------------------------------------------+
; Flow OS Summary                                                                             ;
+---------------------------+------------------+----------------+------------+----------------+
; Module Name               ; Machine Hostname ; OS Name        ; OS Version ; Processor type ;
+---------------------------+------------------+----------------+------------+----------------+
; Analysis & Synthesis      ; bl3-lsd-01       ; Ubuntu 16.04.4 ; 16         ; x86_64         ;
; Fitter                    ; bl3-lsd-01       ; Ubuntu 16.04.4 ; 16         ; x86_64         ;
; Assembler                 ; bl3-lsd-01       ; Ubuntu 16.04.4 ; 16         ; x86_64         ;
; TimeQuest Timing Analyzer ; bl3-lsd-01       ; Ubuntu 16.04.4 ; 16         ; x86_64         ;
+---------------------------+------------------+----------------+------------+----------------+


------------
; Flow Log ;
------------
quartus_map --read_settings_files=on --write_settings_files=off Range_Sensor -c Range_Sensor
quartus_fit --read_settings_files=off --write_settings_files=off Range_Sensor -c Range_Sensor
quartus_asm --read_settings_files=off --write_settings_files=off Range_Sensor -c Range_Sensor
quartus_sta Range_Sensor -c Range_Sensor



